<svg width="410" height="410" viewBox="0 0 410 410" fill="none" xmlns="http://www.w3.org/2000/svg">
<path d="M164.525 329.05C255.39 329.05 329.05 255.39 329.05 164.525C329.05 73.6605 255.39 0 164.525 0C73.6605 0 0 73.6605 0 164.525C0 255.39 73.6605 329.05 164.525 329.05Z" transform="translate(40.4748 40.4749)" fill="white"/>
<path d="M200 400C310.457 400 400 310.457 400 200C400 89.543 310.457 0 200 0C89.543 0 0 89.543 0 200C0 310.457 89.543 400 200 400Z" transform="translate(5 5)" stroke="white" stroke-width="10" stroke-miterlimit="11.4737" stroke-dasharray="40 40"/>
<path d="M5.76224 4.70508L6.76183 2.71372C6.76183 2.71372 5.31146 1.99136 3.8219 1.30805C3.07712 0.976156 2.33234 0.644262 1.76396 0.409984C1.46996 0.292845 1.23477 0.195229 1.07797 0.117137C0.901579 0.0390439 0.803577 2.3832e-06 0.803577 2.3832e-06L2.39252e-06 2.06945C2.39252e-06 2.06945 0.352788 2.20612 0.901574 2.4404C1.45036 2.67467 2.17554 2.98704 2.90072 3.31894C4.33149 3.98273 5.76224 4.70508 5.76224 4.70508Z" transform="translate(225.908 132.825) scale(-1 1)" fill="#10A8E3"/>
<path d="M5.50746 5.17364L6.68343 3.27989C6.68343 3.27989 5.31146 2.42087 3.9003 1.6009C2.48914 0.780928 1.05837 0 1.05837 0L-4.78503e-06 1.95232C-4.78503e-06 1.95232 1.39156 2.71372 2.78312 3.51417C4.17469 4.33414 5.50746 5.17364 5.50746 5.17364Z" transform="translate(217.401 136.984) scale(-1 1)" fill="#10A8E3"/>
<path d="M5.17426 5.52505L6.52663 3.76797C6.52663 3.76797 6.19344 3.51417 5.72305 3.16275C5.23306 2.79181 4.56668 2.32326 3.91989 1.83518C2.58713 0.898066 1.23477 2.3832e-06 1.23477 2.3832e-06L-4.78503e-06 1.8547C-4.78503e-06 1.8547 1.33277 2.73324 2.62633 3.65083C3.27311 4.11938 3.9199 4.58794 4.39029 4.93936C4.86067 5.29077 5.17426 5.52505 5.17426 5.52505Z" transform="translate(209.268 142.001) scale(-1 1)" fill="#10A8E3"/>
<path d="M4.72347 5.91551L6.27184 4.31461C6.27184 4.31461 5.97785 4.04129 5.52706 3.61179C5.07627 3.2018 4.46868 2.65515 3.8807 2.1085C3.27311 1.58138 2.64593 1.03473 2.19515 0.644264C1.72476 0.253801 1.41117 2.3832e-06 1.41117 2.3832e-06L0 1.71804C0 1.71804 0.313597 1.97184 0.764385 2.34278C1.21517 2.73324 1.82275 3.24084 2.41073 3.76797C2.99872 4.29509 3.58671 4.84174 4.0179 5.2322C4.42948 5.64219 4.72347 5.91551 4.72347 5.91551Z" transform="translate(201.643 147.76) scale(-1 1)" fill="#10A8E3"/>
<path d="M4.17469 6.30598L5.91905 4.91983C5.91905 4.91983 5.66425 4.58794 5.27226 4.11938C4.88027 3.65083 4.37069 3.00657 3.8219 2.40135C3.27312 1.79613 2.74393 1.17139 2.31274 0.741881C1.90115 0.292848 1.60716 -2.3832e-06 1.60716 -2.3832e-06L2.39252e-06 1.54233C2.39252e-06 1.54233 0.274395 1.83518 0.685985 2.26468C1.09757 2.69419 1.62675 3.27989 2.13634 3.88511C2.66553 4.4708 3.15552 5.09555 3.54751 5.54458C3.93949 5.99361 4.17469 6.30598 4.17469 6.30598Z" transform="translate(194.744 154.32) scale(-1 1)" fill="#10A8E3"/>
<path d="M3.41031 6.61835L5.35066 5.52505C5.35066 5.52505 4.54708 4.09986 3.6651 2.71372C3.23391 2.01088 2.76353 1.3471 2.41074 0.839493C2.23434 0.585692 2.09715 0.370942 1.97955 0.23428C1.88155 0.0976181 1.82275 0 1.82275 0L4.78503e-06 1.28853C4.78503e-06 1.28853 0.0588009 1.36662 0.156798 1.50329C0.254796 1.63995 0.411587 1.83518 0.568383 2.08898C0.901574 2.57706 1.35237 3.22132 1.76396 3.88511C2.64594 5.2322 3.41031 6.61835 3.41031 6.61835Z" transform="translate(188.727 161.778) scale(-1 1)" fill="#10A8E3"/>
<path d="M2.39114 6.75501L4.50788 6.03265C4.50788 6.03265 4.37069 5.64219 4.1551 5.07602C4.0571 4.78317 3.91989 4.45128 3.8023 4.09986C3.6651 3.74844 3.50831 3.35798 3.35151 2.98704C3.19471 2.6161 3.03793 2.22564 2.88113 1.87422C2.72433 1.52281 2.56753 1.21044 2.43033 0.917589C2.17554 0.370941 1.99915 -1.1916e-06 1.99915 -1.1916e-06L2.39252e-06 0.976156C2.39252e-06 0.976156 0.156794 1.32757 0.411587 1.87422C0.529184 2.14755 0.685982 2.45992 0.842778 2.79181C0.979975 3.12371 1.13677 3.49465 1.29356 3.84606C1.45036 4.217 1.60716 4.56842 1.72476 4.91984C1.84235 5.27125 1.95995 5.58362 2.07754 5.85694C2.25394 6.38407 2.39114 6.75501 2.39114 6.75501Z" transform="translate(183.867 170.154) scale(-1 1)" fill="#10A8E3"/>
<path d="M1.23477 6.73549L3.44951 6.44264C3.44951 6.44264 3.44951 6.34502 3.41032 6.16932C3.39072 5.99361 3.33191 5.73981 3.29271 5.42744C3.17511 4.82222 3.09672 4.00224 2.90072 3.20179C2.72433 2.40135 2.58713 1.6009 2.41073 0.995681C2.25394 0.409986 2.15594 4.76639e-06 2.15594 4.76639e-06L0 0.585699C0 0.585699 0.097995 0.956632 0.254791 1.54233C0.431186 2.1085 0.548788 2.8699 0.725183 3.65082C0.901579 4.41223 0.999569 5.19316 1.09757 5.77885C1.13677 6.0717 1.17597 6.30597 1.21517 6.48168C1.21517 6.63787 1.23477 6.73549 1.23477 6.73549Z" transform="translate(180.574 179.232) scale(-1 1)" fill="#10A8E3"/>
<path d="M0.0391942 6.4036L2.27354 6.52073C2.27354 6.52073 2.29314 6.11074 2.31274 5.50552C2.33234 4.90031 2.37154 4.08033 2.35194 3.26036C2.33234 2.44039 2.35193 1.62042 2.29314 1.0152C2.25394 0.409981 2.23434 4.76639e-06 2.23434 4.76639e-06L4.78503e-06 0.156188C4.78503e-06 0.156188 0.0196019 0.546651 0.0588009 1.13235C0.117599 1.71804 0.0979974 2.49897 0.117597 3.27989C0.137196 4.06082 0.097995 4.84174 0.0783956 5.42744C0.0391966 6.01313 0.0391942 6.4036 0.0391942 6.4036Z" transform="translate(179.026 188.896) scale(-1 1)" fill="#10A8E3"/>
<path d="M-2.39252e-06 6.20836L2.17555 6.69644C2.17555 6.69644 2.27354 6.30598 2.41073 5.70076C2.52833 5.09554 2.66553 4.2951 2.82233 3.49465C2.97912 2.6942 3.07712 1.87422 3.15552 1.269C3.23392 0.663785 3.29271 0.253796 3.29271 0.253796L1.07797 -2.3832e-06C1.07797 -2.3832e-06 1.01917 0.390461 0.940771 0.976155C0.862373 1.56185 0.78398 2.34278 0.627184 3.10418C0.489987 3.88511 0.352791 4.64651 0.235194 5.2322C0.078398 5.81789 -2.39252e-06 6.20836 -2.39252e-06 6.20836Z" transform="translate(180.319 198.345) scale(-1 1)" fill="#10A8E3"/>
<path d="M-2.39252e-06 5.97408L2.09715 6.75501C2.09715 6.75501 2.23434 6.36455 2.44993 5.79838C2.68513 5.23221 2.92032 4.45128 3.17512 3.68988C3.42991 2.90895 3.70431 2.14755 3.8415 1.56185C3.9983 0.976158 4.11589 0.585695 4.11589 0.585695L1.95995 0C1.95995 0 1.86196 0.370945 1.68556 0.956639C1.54836 1.52281 1.27396 2.26469 1.03877 3.02609C0.803574 3.76797 0.548786 4.52937 0.333191 5.07602C0.137196 5.60314 -2.39252e-06 5.97408 -2.39252e-06 5.97408Z" transform="translate(183.063 207.56) scale(-1 1)" fill="#10A8E3"/>
<path d="M2.39252e-06 5.72029L1.97955 6.73549C1.97955 6.73549 2.17555 6.38407 2.44994 5.83742C2.74393 5.29077 3.05752 4.54889 3.41031 3.82654C3.7435 3.08466 4.1159 2.3623 4.35109 1.79613C4.58628 1.22995 4.74308 0.859016 4.74308 0.859016L2.68513 4.76639e-06C2.68513 4.76639e-06 2.52834 0.370935 2.29314 0.917583C2.07755 1.46423 1.72475 2.1866 1.39156 2.88943C1.03877 3.61179 0.725181 4.33414 0.450788 4.86126C0.176395 5.36886 2.39252e-06 5.72029 2.39252e-06 5.72029Z" transform="translate(186.905 216.423) scale(-1 1)" fill="#10A8E3"/>
<path d="M2.39252e-06 5.46648L1.88155 6.65739C1.88155 6.65739 2.72433 5.27125 3.56711 3.8851C3.9983 3.20179 4.37068 2.47944 4.68427 1.95232C4.97827 1.42519 5.17426 1.07378 5.17426 1.07378L3.21431 2.3832e-06C3.21431 2.3832e-06 3.01832 0.351412 2.72432 0.859014C2.43033 1.36662 2.05795 2.06945 1.62676 2.75276C0.823179 4.11938 2.39252e-06 5.46648 2.39252e-06 5.46648Z" transform="translate(191.608 224.877) scale(-1 1)" fill="#10A8E3"/>
<path d="M2.39252e-06 5.17363L1.78355 6.50121C1.78355 6.50121 2.01875 6.16931 2.39114 5.70076C2.74393 5.21268 3.21432 4.54889 3.6847 3.88511C4.15509 3.22132 4.62547 2.55754 4.97826 2.06946C5.31146 1.56185 5.52706 1.22996 5.52706 1.22996L3.66511 -4.76639e-06C3.66511 -4.76639e-06 3.44951 0.331898 3.11631 0.8395C2.76352 1.32758 2.31274 1.97183 1.86195 2.63562C1.39157 3.27988 0.940778 3.94368 0.587987 4.41223C0.235196 4.86127 2.39252e-06 5.17363 2.39252e-06 5.17363Z" transform="translate(196.998 232.959) scale(-1 1)" fill="#10A8E3"/>
<path d="M8.36898 4.2951L8.99616 1.46424C8.99616 1.46424 6.85983 1.0152 4.70388 0.644264C3.62591 0.449032 2.54794 0.292848 1.72476 0.17571C1.31317 0.11714 0.97997 0.0780914 0.725176 0.0390451C0.470383 -1.19276e-06 0.333187 2.3832e-06 0.333187 2.3832e-06L4.78503e-06 2.8699C4.78503e-06 2.8699 0.509587 2.92847 1.29357 3.04561C2.07755 3.16275 3.13592 3.31894 4.17469 3.51417C6.27184 3.84606 8.36898 4.2951 8.36898 4.2951Z" transform="translate(186.669 137.413) scale(-1 1)" fill="#10A8E3"/>
<path d="M8.21218 5.03697L9.11377 2.28421C9.11377 2.28421 7.03621 1.63994 4.93907 1.07377C2.84192 0.507602 0.725176 0 0.725176 0L4.78503e-06 2.81133C4.78503e-06 2.81133 2.07755 3.31893 4.13549 3.86558C6.17384 4.41223 8.21218 5.03697 8.21218 5.03697Z" transform="translate(174.224 139.815) scale(-1 1)" fill="#10A8E3"/>
<path d="M7.93779 5.68124L9.11376 3.02609C9.11376 3.02609 8.60418 2.83086 7.8594 2.51849C7.09502 2.20611 6.09544 1.83518 5.07627 1.44471C3.03792 0.683309 0.97997 0 0.97997 0L-4.78503e-06 2.73324C-4.78503e-06 2.73324 2.01875 3.41655 3.9983 4.15843C4.99787 4.54889 5.97785 4.91984 6.72263 5.21268C7.44781 5.46648 7.93779 5.68124 7.93779 5.68124Z" transform="translate(162.033 143.427) scale(-1 1)" fill="#10A8E3"/>
<path d="M7.5654 6.38407L9.03536 3.86558C9.03536 3.86558 8.56498 3.61178 7.8398 3.22132C7.11461 2.83086 6.15424 2.3623 5.19386 1.8547C4.21389 1.38614 3.23391 0.898065 2.50873 0.566171C1.76395 0.234278 1.27397 1.1916e-06 1.27397 1.1916e-06L0 2.6161C0 2.6161 0.489982 2.83085 1.19556 3.16275C1.92075 3.49464 2.86153 3.9632 3.8219 4.41223C4.76268 4.90031 5.70345 5.36887 6.40904 5.73981C7.11462 6.13027 7.5654 6.38407 7.5654 6.38407Z" transform="translate(150.293 148.131) scale(-1 1)" fill="#10A8E3"/>
<path d="M6.99701 7.06738L8.80017 4.76365C8.80017 4.76365 8.36898 4.43176 7.7026 3.98273C7.03622 3.53369 6.15423 2.8699 5.23306 2.30373C4.33148 1.71804 3.41031 1.11282 2.72433 0.702832C2.03834 0.273323 1.56796 -2.3832e-06 1.56796 -2.3832e-06L4.78503e-06 2.45992C4.78503e-06 2.45992 0.450783 2.73324 1.11717 3.14323C1.80315 3.55321 2.66553 4.11938 3.54751 4.70508C4.42948 5.27125 5.27227 5.89599 5.93865 6.34502C6.58543 6.75501 6.99701 7.06738 6.99701 7.06738Z" transform="translate(139.141 154.125) scale(-1 1)" fill="#10A8E3"/>
<path d="M6.21305 7.80926L8.36899 5.79838C8.36899 5.79838 6.85983 4.25604 5.23307 2.81133C4.42949 2.06945 3.60632 1.38614 2.97913 0.859016C2.66554 0.585692 2.41074 0.370941 2.21475 0.234279C2.03835 0.0780938 1.92075 -1.1916e-06 1.92075 -1.1916e-06L-4.78503e-06 2.22564C-4.78503e-06 2.22564 0.0979974 2.30373 0.274393 2.44039C0.450788 2.57705 0.705572 2.79181 0.999564 3.04561C1.58755 3.55321 2.39113 4.217 3.15551 4.91984C4.74307 6.3255 6.21305 7.82878 6.21305 7.80926Z" transform="translate(128.91 161.466) scale(-1 1)" fill="#10A8E3"/>
<path d="M5.09588 8.39496L7.585 6.81358C7.585 6.81358 7.27141 6.38407 6.80102 5.72028C6.56583 5.38839 6.29144 4.99793 5.99745 4.58794C5.70346 4.17795 5.35066 3.76797 5.03707 3.33846C4.70388 2.90895 4.37069 2.47944 4.05709 2.08898C3.7239 1.69852 3.42992 1.3471 3.15552 1.03472C2.62634 0.409984 2.27355 0 2.27355 0L9.57006e-06 1.87422C9.57006e-06 1.87422 0.333187 2.26469 0.842773 2.85038C1.09757 3.14323 1.39156 3.49464 1.70516 3.86558C1.99915 4.25604 2.31275 4.64651 2.64594 5.0565C2.95953 5.46648 3.29271 5.87647 3.56711 6.26693C3.8415 6.6574 4.1159 7.02834 4.33149 7.34071C4.80188 7.98497 5.09588 8.39496 5.09588 8.39496Z" transform="translate(119.953 170.368) scale(-1 1)" fill="#10A8E3"/>
<path d="M3.7043 8.7659L6.46782 7.6726C6.46782 7.6726 6.42863 7.55546 6.33063 7.34071C6.23264 7.12595 6.09545 6.81358 5.91905 6.46217C5.56626 5.73981 5.17426 4.74413 4.66468 3.78749C4.15509 2.83086 3.70431 1.85469 3.27312 1.17138C2.86153 0.468551 2.60673 -4.76639e-06 2.60673 -4.76639e-06L-9.57006e-06 1.42519C-9.57006e-06 1.42519 0.254793 1.87422 0.646783 2.53801C1.05837 3.20179 1.48955 4.11939 1.95994 5.03698C2.44993 5.93504 2.84194 6.89167 3.15553 7.59451C3.31232 7.94592 3.44952 8.23877 3.54752 8.434C3.66511 8.64875 3.7043 8.7659 3.7043 8.7659Z" transform="translate(112.721 180.735) scale(-1 1)" fill="#10A8E3"/>
<path d="M2.17554 8.80494L5.11547 8.23877C5.11547 8.23877 4.99787 7.71164 4.82147 6.93072C4.64508 6.14979 4.42949 5.11507 4.1159 4.08034C3.82191 3.04562 3.5671 2.01088 3.27311 1.269C3.01832 0.507602 2.84193 0 2.84193 0L4.78503e-06 0.917591C4.78503e-06 0.917591 0.156796 1.40567 0.411589 2.12803C0.685982 2.85038 0.921171 3.84606 1.21516 4.82222C1.50916 5.79838 1.72475 6.81358 1.90115 7.55546C2.05794 8.31687 2.17554 8.80494 2.17554 8.80494Z" transform="translate(107.585 192.332) scale(-1 1)" fill="#10A8E3"/>
<path d="M0.705577 8.57066L3.68471 8.47304C3.68471 8.47304 3.6651 7.94592 3.6455 7.14547C3.6063 6.34502 3.50831 5.29078 3.42991 4.23653C3.37111 3.18228 3.21432 2.12802 3.11632 1.32757C3.01833 0.527125 2.95952 2.3832e-06 2.95952 2.3832e-06L0 0.409984C0 0.409984 0.058808 0.917586 0.156805 1.67899C0.235203 2.44039 0.411599 3.45559 0.450798 4.4708C0.529196 5.486 0.607594 6.52073 0.646793 7.28214C0.685992 8.06306 0.705577 8.57066 0.705577 8.57066Z" transform="translate(104.724 204.67) scale(-1 1)" fill="#10A8E3"/>
<path d="M0 8.19972L2.97911 8.5121C2.97911 8.5121 3.03793 7.98497 3.11632 7.20404C3.21432 6.42312 3.29271 5.34934 3.35151 4.29509C3.41031 3.24084 3.50831 2.1866 3.50831 1.38615C3.52791 0.585697 3.52791 0.0585742 3.52791 0.0585742L0.529177 -4.76639e-06C0.529177 -4.76639e-06 0.529181 0.507604 0.509582 1.28853C0.509582 2.04993 0.411599 3.08465 0.3528 4.09986C0.294002 5.13458 0.235189 6.14979 0.117592 6.9112C0.0391942 7.69212 0 8.19972 0 8.19972Z" transform="translate(104.528 217.243) scale(-1 1)" fill="#10A8E3"/>
<path d="M9.57006e-06 8.12163L2.92031 8.74637C2.92031 8.74637 3.03791 8.23877 3.21431 7.45785C3.4103 6.69644 3.5867 5.64219 3.7827 4.60746C3.97869 3.57273 4.2139 2.53801 4.3119 1.73757C4.42949 0.956639 4.50789 0.429512 4.50789 0.429512L1.54835 0C1.54835 0 1.46995 0.507602 1.35236 1.269C1.25436 2.03041 1.03877 3.04561 0.842773 4.06081C0.627179 5.07602 0.470378 6.09122 0.274383 6.85262C0.117587 7.61402 9.57006e-06 8.12163 9.57006e-06 8.12163Z" transform="translate(106.625 229.426) scale(-1 1)" fill="#10A8E3"/>
<path d="M-9.57006e-06 7.94593L2.84192 8.82447C2.84192 8.82447 3.4691 6.81358 4.11588 4.78317C4.44907 3.76797 4.68429 2.75277 4.91948 1.99137C5.13508 1.22996 5.27226 0.722361 5.27226 0.722361L2.37155 2.3832e-06C2.37155 2.3832e-06 2.23434 0.507597 2.01875 1.24948C1.80315 1.99136 1.56796 3.00656 1.23477 3.98272C0.627184 5.97408 -9.57006e-06 7.94593 -9.57006e-06 7.94593Z" transform="translate(109.977 241.471) scale(-1 1)" fill="#10A8E3"/>
<path d="M0 7.73117L2.76352 8.82446C2.76352 8.82446 2.97911 8.33638 3.27311 7.61402C3.5671 6.87215 3.93949 5.89599 4.33148 4.91983C4.72347 3.94367 5.09587 2.948 5.38986 2.20612C5.64465 1.46424 5.82104 0.956634 5.82104 0.956634L2.99873 -4.76639e-06C2.99873 -4.76639e-06 2.82232 0.488084 2.56753 1.22996C2.29314 1.95232 1.90116 2.92847 1.52877 3.88511C1.15638 4.84174 0.78398 5.81789 0.489987 6.54025C0.195995 7.26261 0 7.73117 0 7.73117Z" transform="translate(114.328 253.263) scale(-1 1)" fill="#10A8E3"/>
<path d="M2.13634 -4.76639e-06L0 0.644269C0 0.644269 0.391991 1.91327 0.80358 3.18228C1.01917 3.80702 1.23477 4.45128 1.39156 4.91983C1.56796 5.38839 1.68556 5.72029 1.68556 5.72029L3.7631 4.91983C3.7631 4.91983 3.64551 4.62699 3.48871 4.17795C3.33191 3.72892 3.11632 3.10419 2.90072 2.49897C2.50874 1.24949 2.13634 -4.76639e-06 2.13634 -4.76639e-06Z" transform="translate(287.391 241.354) scale(-1 1)" fill="#10A8E3"/>
<path d="M2.15594 2.3832e-06L5.98129e-07 0.52713C5.98129e-07 0.52713 0.0783986 0.839496 0.195995 1.32757C0.313592 1.81565 0.489987 2.44039 0.666382 3.08466C1.01917 4.37319 1.37196 5.64219 1.37196 5.64219L3.50831 5.03697C3.50831 5.03697 3.15552 3.78749 2.80273 2.51848C2.64593 1.89374 2.46954 1.24948 2.35194 0.780929C2.23434 0.312373 2.15594 2.3832e-06 2.15594 2.3832e-06Z" transform="translate(289.488 233.858) scale(-1 1)" fill="#10A8E3"/>
<path d="M2.19514 -2.3832e-06L0 0.429509C0 0.429509 0.0587991 0.761405 0.156797 1.24948C0.254794 1.73756 0.391989 2.38182 0.529186 3.02609C0.666382 3.67035 0.823178 4.31462 0.921175 4.8027C1.03877 5.29078 1.09757 5.60314 1.09757 5.60314L3.27311 5.11507C3.27311 5.11507 3.19472 4.8027 3.09672 4.31462C2.99872 3.84607 2.84193 3.2018 2.70473 2.55754C2.56753 1.91327 2.43034 1.28853 2.33234 0.800454C2.25394 0.331898 2.19514 -2.3832e-06 2.19514 -2.3832e-06Z" transform="translate(291.213 226.263) scale(-1 1)" fill="#10A8E3"/>
<path d="M2.21474 -4.76639e-06L5.98129e-07 0.312373C5.98129e-07 0.312373 0.195996 1.62042 0.39199 2.92847C0.489988 3.57273 0.607585 4.23652 0.685983 4.7246C0.764381 5.21268 0.823179 5.54458 0.823179 5.54458L3.01832 5.15411C3.01832 5.15411 2.95952 4.84175 2.88112 4.35367C2.80273 3.86559 2.70473 3.22132 2.58713 2.57705C2.41074 1.28853 2.21474 -4.76639e-06 2.21474 -4.76639e-06Z" transform="translate(292.526 218.61) scale(-1 1)" fill="#10A8E3"/>
<path d="M2.21474 0L-1.19626e-06 0.175713C-1.19626e-06 0.175713 0.0195989 0.507597 0.0587979 0.995676C0.0979968 1.48375 0.176397 2.14755 0.235195 2.81134C0.293994 3.47513 0.391991 4.13891 0.43119 4.62699C0.489988 5.11507 0.529187 5.44696 0.529187 5.44696L2.74393 5.17364C2.74393 5.17364 2.70473 4.84174 2.64593 4.35366C2.58713 3.86558 2.50873 3.22132 2.44993 2.57706C2.39114 1.93279 2.33234 1.28852 2.27354 0.800444C2.23434 0.331889 2.21474 0 2.21474 0Z" transform="translate(293.389 210.879) scale(-1 1)" fill="#10A8E3"/>
<path d="M2.23434 -2.3832e-06L-5.98129e-07 0.0390463C-5.98129e-07 0.0390463 5.97253e-07 0.370942 0.0196001 0.859021C0.0391996 1.36662 0.0587979 2.01088 0.0979969 2.67467C0.117596 3.33846 0.156795 4.00224 0.195994 4.49032C0.215594 4.9784 0.235193 5.3103 0.235193 5.3103L2.44994 5.17363C2.44994 5.17363 2.43034 4.84174 2.41074 4.35366C2.39114 3.86558 2.33234 3.22132 2.31274 2.55754C2.29314 1.91327 2.25394 1.24948 2.25394 0.761405C2.23434 0.331896 2.23434 -2.3832e-06 2.23434 -2.3832e-06Z" transform="translate(293.82 203.128) scale(-1 1)" fill="#10A8E3"/>
<path d="M2.35194 0.117134L0.117598 0C0.117598 0 0.0979986 0.331891 0.0783992 0.839493C0.0587997 1.32757 0.0391996 1.99136 0.0196001 2.65514C5.97253e-07 3.31893 -5.98129e-07 3.98273 -5.98129e-07 4.47081C-5.98129e-07 4.97841 -5.98129e-07 5.3103 -5.98129e-07 5.3103H2.23434C2.23434 5.3103 2.23434 4.9784 2.23434 4.49032C2.23434 4.00225 2.23434 3.35798 2.25394 2.69419C2.27354 2.04993 2.29314 1.38614 2.31274 0.89806C2.31274 0.429505 2.35194 0.117134 2.35194 0.117134Z" transform="translate(293.82 195.26) scale(-1 1)" fill="#10A8E3"/>
<path d="M2.72433 0.273319L0.509587 2.3832e-06C0.509587 2.3832e-06 0.450789 0.331898 0.41159 0.819977C0.352791 1.30806 0.274393 1.97184 0.215595 2.63563C0.137197 3.29941 0.0979974 3.9632 0.0587985 4.45128C0.0195995 4.93936 -5.98129e-07 5.27125 -5.98129e-07 5.27125L2.21474 5.42744C2.21474 5.42744 2.23434 5.09555 2.27354 4.62699C2.31274 4.13891 2.35194 3.49464 2.43034 2.85038C2.50874 2.20611 2.56753 1.56185 2.62633 1.07378C2.66553 0.585697 2.72433 0.273319 2.72433 0.273319Z" transform="translate(293.526 187.393) scale(-1 1)" fill="#10A8E3"/>
<path d="M3.15552 0.468556L0.979974 -4.76639e-06C0.979974 -4.76639e-06 0.705582 1.30805 0.450788 2.6161C0.235194 3.92415 -5.98129e-07 5.23221 -5.98129e-07 5.23221L2.19514 5.56409C2.19514 5.56409 2.41074 4.27557 2.62633 3.00657C2.88113 1.73756 3.15552 0.468556 3.15552 0.468556Z" transform="translate(292.644 179.564) scale(-1 1)" fill="#10A8E3"/>
<path d="M3.60631 0.683309L1.48956 -1.1916e-06C1.48956 -1.1916e-06 1.39156 0.31237 1.23477 0.800449C1.07797 1.269 0.862378 1.91327 0.705582 2.55753C0.529187 3.2018 0.352791 3.84606 0.215595 4.31462C0.156796 4.54889 0.0979974 4.76365 0.0587985 4.90031C0.0195995 5.03697 -5.98129e-07 5.11507 -5.98129e-07 5.11507L2.15594 5.66171C2.15594 5.66171 2.17554 5.58362 2.21474 5.44696C2.25394 5.3103 2.29314 5.11506 2.37154 4.88079C2.50874 4.41223 2.66553 3.78749 2.84193 3.16275C2.99872 2.53801 3.21432 1.91327 3.35151 1.46424C3.50831 0.976156 3.60631 0.683309 3.60631 0.683309Z" transform="translate(291.076 171.911) scale(-1 1)" fill="#10A8E3"/>
<path d="M4.05709 0.917588L2.01875 -2.3832e-06C2.01875 -2.3832e-06 1.88155 0.312373 1.66596 0.761405C1.45036 1.21044 1.21517 1.83517 0.960374 2.45992C0.70558 3.08466 0.450787 3.68988 0.274392 4.15843C0.0979962 4.62699 0 4.93936 0 4.93936L2.09714 5.70076C2.09714 5.70076 2.21474 5.38839 2.37154 4.93936C2.52834 4.49033 2.78313 3.88511 3.01832 3.27989C3.27311 2.67467 3.48871 2.06946 3.7043 1.63995C3.9199 1.21044 4.05709 0.917588 4.05709 0.917588Z" transform="translate(288.763 164.472) scale(-1 1)" fill="#10A8E3"/>
<path d="M4.48828 1.13234L2.56753 2.3832e-06C2.56753 2.3832e-06 2.52833 0.078095 2.44994 0.195234C2.37154 0.312373 2.27354 0.507601 2.13634 0.722355C1.88155 1.15186 1.56796 1.73756 1.23477 2.32326C0.901577 2.90895 0.607583 3.49464 0.372389 3.94368C0.137195 4.39271 0 4.68556 0 4.68556L1.99915 5.66172C1.99915 5.66172 2.13635 5.36887 2.37154 4.93936C2.58713 4.50985 2.88113 3.92415 3.19472 3.35798C3.50831 2.79181 3.8219 2.22564 4.05709 1.81565C4.17469 1.6009 4.27269 1.42519 4.35109 1.30805C4.42948 1.21043 4.48828 1.13234 4.48828 1.13234Z" transform="translate(285.627 157.425) scale(-1 1)" fill="#10A8E3"/>
<path d="M4.88027 1.36662L3.11632 0C3.11632 0 2.92032 0.273323 2.60673 0.663786C2.31274 1.07377 1.88155 1.58138 1.50916 2.14755C0.744779 3.24084 -5.98129e-07 4.35366 -5.98129e-07 4.35366L1.86195 5.5641C1.86195 5.5641 2.58713 4.49033 3.33192 3.43608C3.70431 2.90895 4.11589 2.40135 4.39029 2.01088C4.68428 1.62042 4.88027 1.36662 4.88027 1.36662Z" transform="translate(281.668 150.845) scale(-1 1)" fill="#10A8E3"/>
<path d="M5.19387 1.56185L3.60631 0C3.60631 0 3.37111 0.234278 3.01832 0.585695C2.66553 0.956634 2.21474 1.44471 1.76396 1.93279C1.52876 2.18659 1.31317 2.42087 1.09757 2.65515C0.999576 2.77229 0.881978 2.88942 0.783981 2.98704C0.685983 3.10418 0.607582 3.2018 0.529184 3.29941C0.195992 3.68987 1.19626e-06 3.94368 1.19626e-06 3.94368L1.70515 5.36887C1.70515 5.36887 1.92075 5.11506 2.23434 4.74412C2.31274 4.64651 2.39114 4.54889 2.48913 4.45128C2.58713 4.35366 2.68513 4.23653 2.78312 4.13891C2.99872 3.92416 3.21432 3.67035 3.42991 3.43608C3.8611 2.96752 4.31188 2.47944 4.64508 2.12802C4.97827 1.77661 5.19387 1.56185 5.19387 1.56185Z" transform="translate(276.886 144.891) scale(-1 1)" fill="#10A8E3"/>
<path d="M5.46826 1.73756L4.07669 -2.3832e-06C4.07669 -2.3832e-06 3.8219 0.214755 3.42991 0.527125C3.03792 0.839496 2.50873 1.24948 1.99915 1.69851C0.999573 2.59658 2.39252e-06 3.47512 2.39252e-06 3.47512L1.50916 5.09554C1.50916 5.09554 2.46953 4.23653 3.44951 3.37751C3.93949 2.948 4.44908 2.55753 4.82147 2.24516C5.21346 1.95231 5.46826 1.73756 5.46826 1.73756Z" transform="translate(271.378 139.58) scale(-1 1)" fill="#10A8E3"/>
<path d="M5.60545 1.87422L4.42948 -1.1916e-06C4.42948 -1.1916e-06 3.31231 0.741879 2.19514 1.46424C1.92075 1.65947 1.62676 1.83518 1.37197 2.01089C1.11717 2.1866 0.881979 2.3623 0.685985 2.51848C0.274395 2.81133 2.39252e-06 3.00656 2.39252e-06 3.00656L1.31316 4.8027C1.31316 4.8027 1.56796 4.60746 1.95995 4.33414C2.15595 4.19748 2.39114 4.02177 2.62633 3.84606C2.88113 3.67035 3.15552 3.49464 3.41031 3.31893C4.52748 2.57705 5.60545 1.87422 5.60545 1.87422Z" transform="translate(265.205 135.012) scale(-1 1)" fill="#10A8E3"/>
<path d="M5.72305 1.99136L4.74308 1.1916e-06C4.74308 1.1916e-06 4.66468 0.0390475 4.52748 0.097617C4.39028 0.156186 4.21389 0.253801 3.9787 0.37094C3.52791 0.605218 2.93993 0.917587 2.35194 1.22996C1.76396 1.54233 1.17597 1.8547 0.72518 2.1085C0.293991 2.3623 2.39252e-06 2.53801 2.39252e-06 2.53801L1.11717 4.45128C1.11717 4.45128 1.39156 4.29509 1.82275 4.04129C2.25394 3.78749 2.82233 3.49464 3.39071 3.2018C3.9591 2.88943 4.54708 2.59658 4.97827 2.3623C5.19387 2.24516 5.37026 2.16707 5.50745 2.1085C5.64465 2.01088 5.72305 1.99136 5.72305 1.99136Z" transform="translate(258.541 131.146) scale(-1 1)" fill="#10A8E3"/>
<path d="M5.72305 2.06945L4.91947 -5.95799e-07C4.91947 -5.95799e-07 4.84107 0.0390475 4.70388 0.0780938C4.56668 0.136663 4.37069 0.195231 4.13549 0.292847C3.6651 0.488078 3.05752 0.741879 2.44994 1.0152C1.84235 1.269 1.21517 1.54233 0.764378 1.73756C0.529184 1.83518 0.352791 1.93279 0.215594 1.99136C0.078398 2.04993 -1.19626e-06 2.08898 -1.19626e-06 2.08898L0.921177 4.09986C0.921177 4.09986 0.999575 4.06082 1.11717 4.00225C1.25437 3.94368 1.43076 3.84606 1.64635 3.74844C2.09714 3.55321 2.70473 3.29941 3.29272 3.04561C3.9003 2.79181 4.48828 2.53801 4.93907 2.34278C5.15467 2.24516 5.35066 2.18659 5.48786 2.12802C5.64465 2.1085 5.72305 2.06945 5.72305 2.06945Z" transform="translate(251.446 127.945) scale(-1 1)" fill="#10A8E3"/>
<path d="M5.70345 2.12802L5.05667 -1.1916e-06C5.05667 -1.1916e-06 4.97827 0.0195226 4.84108 0.0585689C4.70388 0.0976152 4.50788 0.175708 4.27269 0.2538C3.8023 0.409986 3.15552 0.624742 2.52833 0.819974C1.90115 1.03473 1.25437 1.22996 0.78398 1.38614C0.313592 1.56185 0 1.67899 0 1.67899L0.764379 3.76797C0.764379 3.76797 1.07797 3.65083 1.52876 3.47512C1.99915 3.31894 2.60673 3.1237 3.23392 2.90895C3.8611 2.71372 4.46869 2.49896 4.93907 2.34278C5.17427 2.26468 5.37026 2.20612 5.50746 2.16707C5.62505 2.14755 5.70345 2.12802 5.70345 2.12802Z" transform="translate(244.076 125.348) scale(-1 1)" fill="#10A8E3"/>
<path d="M5.66425 2.16707L5.15466 0C5.15466 0 3.8611 0.31237 2.56754 0.62474C2.23434 0.702833 1.92075 0.780925 1.62676 0.859017C1.33276 0.93711 1.03878 1.01521 0.803581 1.0933C0.313594 1.22996 1.19626e-06 1.32757 1.19626e-06 1.32757L0.607587 3.47512C0.607587 3.47512 0.921178 3.3775 1.39157 3.26037C1.62676 3.2018 1.90115 3.10418 2.19514 3.02609C2.48913 2.948 2.80273 2.8699 3.13592 2.79181C4.39029 2.47944 5.66425 2.16707 5.66425 2.16707Z" transform="translate(236.511 123.318) scale(-1 1)" fill="#10A8E3"/>
<path d="M5.60545 2.18659L5.23306 -5.95799e-07C5.23306 -5.95799e-07 4.89988 0.0585683 4.40989 0.136661C3.9199 0.234277 3.25352 0.31237 2.60673 0.449032C1.31317 0.722357 4.78503e-06 0.976157 4.78503e-06 0.976157L0.450791 3.14323C0.450791 3.14323 1.72475 2.88943 3.01832 2.6161C3.6651 2.47944 4.31189 2.40135 4.78227 2.30373C5.29186 2.24516 5.60545 2.18659 5.60545 2.18659Z" transform="translate(228.808 121.795) scale(-1 1)" fill="#10A8E3"/>
<path d="M38.1406 17.9223C32.0256 12.5339 34.8087 2.3832e-06 34.8087 2.3832e-06H25.6949H16.5812C16.5812 2.3832e-06 19.3643 12.5534 13.2493 17.9223C7.13422 23.3106 -2.39252e-06 23.3106 -2.39252e-06 23.3106V26.3367H25.6949H51.3899V23.3106C51.3899 23.3106 44.2557 23.3106 38.1406 17.9223Z" transform="translate(210.698 278.663) scale(-1 1)" fill="#A5A5A5"/>
<path opacity="0.3" d="M51.4095 -4.76639e-06H-2.39252e-06V3.02608H51.4095V-4.76639e-06Z" transform="translate(210.698 301.974) scale(-1 1)" fill="white"/>
<path d="M135.883 73.9537C135.883 78.405 132.257 82.0168 127.789 82.0168H8.09459C3.62591 82.0168 -2.39252e-06 78.405 -2.39252e-06 73.9537V8.06307C-2.39252e-06 3.61179 3.62591 -4.76639e-06 8.09459 -4.76639e-06H127.789C132.257 -4.76639e-06 135.883 3.61179 135.883 8.06307V73.9537V73.9537Z" transform="translate(252.935 196.646) scale(-1 1)" fill="#CCCCCC"/>
<path d="M2.39252e-06 5.42744V71.3181C2.39252e-06 72.8799 0.450788 74.3442 1.23477 75.5741H134.668C135.452 74.3442 135.903 72.8799 135.903 71.3181V5.42744C135.903 3.33846 135.099 1.44471 133.786 -4.76639e-06H2.11674C0.803579 1.44471 2.39252e-06 3.33846 2.39252e-06 5.42744Z" transform="translate(252.955 199.282) scale(-1 1)" fill="#223666"/>
<path d="M124.202 -4.76639e-06H0V70.0295H124.202V-4.76639e-06Z" transform="translate(247.095 202.015) scale(-1 1)" fill="#E2E2E2"/>
<path d="M19.5015 2.3832e-06H0V17.9613H19.5015V2.3832e-06Z" transform="translate(239.588 217.751) scale(-1 1)" fill="#F95A78"/>
<path d="M19.5015 2.3832e-06H2.39252e-06V17.9613H19.5015V2.3832e-06Z" transform="translate(192.686 217.751) scale(-1 1)" fill="#F9F94B"/>
<path d="M19.5015 2.3832e-06H2.39252e-06V17.9613H19.5015V2.3832e-06Z" transform="translate(151.037 217.751) scale(-1 1)" fill="#F49625"/>
<path d="M31.2612 0H0V1.30805H31.2612V0Z" transform="translate(239.588 239.48) scale(-1 1)" fill="#AEC647"/>
<path d="M31.2612 2.3832e-06H0V1.30806H31.2612V2.3832e-06Z" transform="translate(239.588 243.424) scale(-1 1)" fill="#F3AE1B"/>
<path d="M31.2612 -2.3832e-06H0V1.30805H31.2612V-2.3832e-06Z" transform="translate(239.588 247.055) scale(-1 1)" fill="#DF3F11"/>
<path d="M25.6557 2.3832e-06H4.78503e-06V1.30806H25.6557V2.3832e-06Z" transform="translate(208.817 255.333) scale(-1 1)" fill="#F3AE1B"/>
<path d="M23.6762 2.3832e-06H0V1.30806H23.6762V2.3832e-06Z" transform="translate(235.668 255.333) scale(-1 1)" fill="#AEC647"/>
<path d="M23.6762 4.76639e-06H0V1.30805H23.6762V4.76639e-06Z" transform="translate(235.668 258.984) scale(-1 1)" fill="#F3AE1B"/>
<path d="M12.0537 4.76639e-06H4.78503e-06V1.30805H12.0537V4.76639e-06Z" transform="translate(208.817 258.984) scale(-1 1)" fill="#AEC647"/>
<path d="M23.6762 4.76639e-06H0V1.30805H23.6762V4.76639e-06Z" transform="translate(235.668 266.012) scale(-1 1)" fill="#AEC647"/>
<path d="M12.0537 4.76639e-06H4.78503e-06V1.30805H12.0537V4.76639e-06Z" transform="translate(208.817 266.012) scale(-1 1)" fill="#F3AE1B"/>
<path d="M8.62378 2.3832e-06H2.39252e-06V1.30806H8.62378V2.3832e-06Z" transform="translate(182.887 262.459) scale(-1 1)" fill="#F3AE1B"/>
<path d="M51.1547 -4.76639e-06H0V1.30805H51.1547V-4.76639e-06Z" transform="translate(235.668 251.116) scale(-1 1)" fill="#BCDEDE"/>
<path d="M51.1547 2.3832e-06H0V1.30806H51.1547V2.3832e-06Z" transform="translate(235.668 262.459) scale(-1 1)" fill="#BCDEDE"/>
<path d="M8.62378 2.3832e-06H2.39252e-06V1.30806H8.62378V2.3832e-06Z" transform="translate(182.887 270.171) scale(-1 1)" fill="#AEC647"/>
<path d="M51.1547 2.3832e-06H0V1.30806H51.1547V2.3832e-06Z" transform="translate(235.668 270.171) scale(-1 1)" fill="#AEC647"/>
<path d="M20.7363 -4.76639e-06H2.39252e-06V1.30805H20.7363V-4.76639e-06Z" transform="translate(148.49 255.802) scale(-1 1)" fill="#F3AE1B"/>
<path d="M19.1487 -4.76639e-06H4.78503e-06V1.30805H19.1487V-4.76639e-06Z" transform="translate(170.206 255.802) scale(-1 1)" fill="#AEC647"/>
<path d="M19.1487 2.3832e-06H4.78503e-06V1.30806H19.1487V2.3832e-06Z" transform="translate(170.206 259.433) scale(-1 1)" fill="#F3AE1B"/>
<path d="M9.74095 2.3832e-06H2.39252e-06V1.30806H9.74095V2.3832e-06Z" transform="translate(148.49 259.433) scale(-1 1)" fill="#AEC647"/>
<path d="M19.1487 2.3832e-06H4.78503e-06V1.30806H19.1487V2.3832e-06Z" transform="translate(170.206 266.461) scale(-1 1)" fill="#AEC647"/>
<path d="M9.74095 2.3832e-06H2.39252e-06V1.30806H9.74095V2.3832e-06Z" transform="translate(148.49 266.461) scale(-1 1)" fill="#F3AE1B"/>
<path d="M41.3549 0H4.78503e-06V1.30805H41.3549V0Z" transform="translate(170.206 251.584) scale(-1 1)" fill="#BCDEDE"/>
<path d="M41.3549 -4.76639e-06H4.78503e-06V1.30805H41.3549V-4.76639e-06Z" transform="translate(170.206 262.927) scale(-1 1)" fill="#BCDEDE"/>
<path d="M41.3549 0H4.78503e-06V1.30805H41.3549V0Z" transform="translate(170.206 270.62) scale(-1 1)" fill="#AEC647"/>
<path d="M124.241 -2.3832e-06H2.39252e-06V12.2605H124.241V-2.3832e-06Z" transform="translate(247.075 201.957) scale(-1 1)" fill="#34495E"/>
<path d="M58.9749 2.73324C58.9749 4.23653 57.7597 5.46648 56.2505 5.46648H2.72433C1.21517 5.46648 1.19626e-06 4.23653 1.19626e-06 2.73324C1.19626e-06 1.22996 1.21517 2.3832e-06 2.72433 2.3832e-06H56.2505C57.7597 2.3832e-06 58.9749 1.22996 58.9749 2.73324Z" transform="translate(241.901 204.475) scale(-1 1)" fill="#E2E1E0"/>
<path d="M3.52791 1.75709C3.52791 2.73324 2.74393 3.51417 1.76396 3.51417C0.803584 3.51417 4.78503e-06 2.73324 4.78503e-06 1.75709C4.78503e-06 0.780928 0.783984 2.3832e-06 1.76396 2.3832e-06C2.74393 2.3832e-06 3.52791 0.780928 3.52791 1.75709Z" transform="translate(143.06 204.475) scale(-1 1)" fill="#FF614F"/>
<path d="M3.52791 1.75709C3.52791 2.73324 2.74393 3.51417 1.76395 3.51417C0.803579 3.51417 0 2.73324 0 1.75709C0 0.780928 0.78398 2.3832e-06 1.76395 2.3832e-06C2.74393 2.3832e-06 3.52791 0.780928 3.52791 1.75709Z" transform="translate(137.259 204.475) scale(-1 1)" fill="#84E570"/>
<path d="M3.52791 1.75709C3.52791 2.73324 2.74393 3.51417 1.76396 3.51417C0.783984 3.51417 4.78503e-06 2.73324 4.78503e-06 1.75709C4.78503e-06 0.780928 0.783984 2.3832e-06 1.76396 2.3832e-06C2.72433 2.3832e-06 3.52791 0.780928 3.52791 1.75709Z" transform="translate(131.203 204.475) scale(-1 1)" fill="#7D57FF"/>
<path fill-rule="evenodd" clip-rule="evenodd" d="M37.1214 62.1812C37.1214 63.3917 36.1415 64.3678 34.9263 64.3678H2.19514C0.97997 64.3678 4.78503e-06 63.3917 4.78503e-06 62.1812V2.18659C4.78503e-06 0.976153 0.97997 4.76639e-06 2.19514 4.76639e-06H34.9459C36.161 4.76639e-06 37.141 0.976153 37.141 2.18659V62.1812H37.1214Z" transform="translate(144.334 237.997) scale(-1 1)" fill="#0B2E44"/>
<path opacity="0.8" d="M30.2812 0H4.78503e-06V43.9857H30.2812V0Z" transform="translate(140.905 245.63) scale(-1 1)" fill="white"/>
<path d="M4.74308 -4.76639e-06H2.39252e-06V7.88735H4.74308V-4.76639e-06Z" transform="translate(139.082 252.483) scale(-1 1)" fill="#F95A78"/>
<path d="M4.74307 -4.76639e-06H0V7.88735H4.74307V-4.76639e-06Z" transform="translate(127.655 252.483) scale(-1 1)" fill="#F9F94B"/>
<path d="M4.74308 -4.76639e-06H9.57006e-06V7.88735H4.74308V-4.76639e-06Z" transform="translate(117.503 252.483) scale(-1 1)" fill="#F49625"/>
<path d="M7.6242 0H2.39252e-06V0.566176H7.6242V0Z" transform="translate(139.082 262.03) scale(-1 1)" fill="#AEC647"/>
<path d="M7.6242 4.76639e-06H2.39252e-06V0.566169H7.6242V4.76639e-06Z" transform="translate(139.082 263.768) scale(-1 1)" fill="#F3AE1B"/>
<path d="M7.6242 -4.76639e-06H2.39252e-06V0.566171H7.6242V-4.76639e-06Z" transform="translate(139.082 265.368) scale(-1 1)" fill="#DF3F11"/>
<path d="M6.25224 2.3832e-06H0V0.566167H6.25224V2.3832e-06Z" transform="translate(131.575 269) scale(-1 1)" fill="#F3AE1B"/>
<path d="M5.78184 2.3832e-06H-4.78503e-06V0.566167H5.78184V2.3832e-06Z" transform="translate(138.121 269) scale(-1 1)" fill="#AEC647"/>
<path d="M5.78184 4.76639e-06H-4.78503e-06V0.566169H5.78184V4.76639e-06Z" transform="translate(138.121 270.601) scale(-1 1)" fill="#F3AE1B"/>
<path d="M2.93992 4.76639e-06H0V0.566169H2.93992V4.76639e-06Z" transform="translate(131.575 270.601) scale(-1 1)" fill="#AEC647"/>
<path d="M5.78184 2.3832e-06H-4.78503e-06V0.566167H5.78184V2.3832e-06Z" transform="translate(138.121 273.685) scale(-1 1)" fill="#AEC647"/>
<path d="M2.93992 2.3832e-06H0V0.566167H2.93992V2.3832e-06Z" transform="translate(131.575 273.685) scale(-1 1)" fill="#F3AE1B"/>
<path d="M2.09715 2.3832e-06H-9.57006e-06V0.566167H2.09715V2.3832e-06Z" transform="translate(125.264 272.124) scale(-1 1)" fill="#F3AE1B"/>
<path d="M12.4653 2.3832e-06H-4.78503e-06V0.566167H12.4653V2.3832e-06Z" transform="translate(138.121 267.145) scale(-1 1)" fill="#BCDEDE"/>
<path d="M12.4653 2.3832e-06H-4.78503e-06V0.566167H12.4653V2.3832e-06Z" transform="translate(138.121 272.124) scale(-1 1)" fill="#BCDEDE"/>
<path d="M2.09715 -4.76639e-06H-9.57006e-06V0.566171H2.09715V-4.76639e-06Z" transform="translate(125.264 275.521) scale(-1 1)" fill="#AEC647"/>
<path d="M12.4653 -4.76639e-06H-4.78503e-06V0.566171H12.4653V-4.76639e-06Z" transform="translate(138.121 275.521) scale(-1 1)" fill="#AEC647"/>
<path d="M5.05668 2.3832e-06H0V0.566167H5.05668V2.3832e-06Z" transform="translate(116.876 269.195) scale(-1 1)" fill="#F3AE1B"/>
<path d="M4.66469 2.3832e-06H0V0.566167H4.66469V2.3832e-06Z" transform="translate(122.167 269.195) scale(-1 1)" fill="#AEC647"/>
<path d="M4.66469 4.76639e-06H0V0.566169H4.66469V4.76639e-06Z" transform="translate(122.167 270.796) scale(-1 1)" fill="#F3AE1B"/>
<path d="M2.37153 4.76639e-06H0V0.566169H2.37153V4.76639e-06Z" transform="translate(116.876 270.796) scale(-1 1)" fill="#AEC647"/>
<path d="M4.66469 2.3832e-06H0V0.566167H4.66469V2.3832e-06Z" transform="translate(122.167 273.881) scale(-1 1)" fill="#AEC647"/>
<path d="M2.37153 2.3832e-06H0V0.566167H2.37153V2.3832e-06Z" transform="translate(116.876 273.881) scale(-1 1)" fill="#F3AE1B"/>
<path d="M10.0741 2.3832e-06H0V0.566167H10.0741V2.3832e-06Z" transform="translate(122.167 267.34) scale(-1 1)" fill="#BCDEDE"/>
<path d="M10.0741 -2.3832e-06H0V0.566174H10.0741V-2.3832e-06Z" transform="translate(122.167 272.338) scale(-1 1)" fill="#BCDEDE"/>
<path d="M10.0741 -4.76639e-06H0V0.566171H10.0741V-4.76639e-06Z" transform="translate(122.167 275.716) scale(-1 1)" fill="#AEC647"/>
<path d="M30.2812 -4.76639e-06H4.78503e-06V5.38839H30.2812V-4.76639e-06Z" transform="translate(140.905 245.552) scale(-1 1)" fill="#34495E"/>
<path d="M14.386 1.19092C14.386 1.8547 14.092 2.38182 13.7196 2.38182H0.666378C0.293988 2.38182 2.39252e-06 1.8547 2.39252e-06 1.19092C2.39252e-06 0.52713 0.293988 -2.3832e-06 0.666378 -2.3832e-06H13.7196C14.092 -2.3832e-06 14.386 0.52713 14.386 1.19092Z" transform="translate(139.67 246.665) scale(-1 1)" fill="#E2E1E0"/>
<path d="M0.431194 1.56185C0.669333 1.56185 0.862373 1.21222 0.862373 0.780928C0.862373 0.349635 0.669333 2.3832e-06 0.431194 2.3832e-06C0.193055 2.3832e-06 -9.57006e-06 0.349635 -9.57006e-06 0.780928C-9.57006e-06 1.21222 0.193055 1.56185 0.431194 1.56185Z" transform="translate(115.562 246.646) scale(-1 1)" fill="#FF614F"/>
<path d="M0.431179 1.56185C0.669318 1.56185 0.862382 1.21222 0.862382 0.780928C0.862382 0.349635 0.669318 2.3832e-06 0.431179 2.3832e-06C0.19304 2.3832e-06 0 0.349635 0 0.780928C0 1.21222 0.19304 1.56185 0.431179 1.56185Z" transform="translate(114.132 246.646) scale(-1 1)" fill="#84E570"/>
<path d="M0.431179 1.56185C0.669318 1.56185 0.862382 1.21222 0.862382 0.780928C0.862382 0.349635 0.669318 2.3832e-06 0.431179 2.3832e-06C0.19304 2.3832e-06 0 0.349635 0 0.780928C0 1.21222 0.19304 1.56185 0.431179 1.56185Z" transform="translate(112.662 246.646) scale(-1 1)" fill="#7D57FF"/>
<path opacity="0.1" fill-rule="evenodd" clip-rule="evenodd" d="M30.2616 0H29.7128L4.78503e-06 42.2286V43.9857H30.2616V0Z" transform="translate(140.905 245.63) scale(-1 1)" fill="black"/>
<path d="M62.2872 65.0707C62.2872 66.9839 61.2092 68.5458 59.896 68.5458H2.39114C1.07797 68.5458 0 66.9839 0 65.0707V3.47512C0 1.56185 1.07797 -1.4895e-07 2.39114 -1.4895e-07H59.9156C61.2288 -1.4895e-07 62.3068 1.56185 62.3068 3.47512V65.0707H62.2872Z" transform="translate(239.96 89.7964) scale(-1 1)" fill="#ECF0F1"/>
<path d="M59.896 0H2.39114C1.07797 0 0 1.40567 0 3.14323V15.3062H62.3068V3.14323C62.2872 1.40567 61.2288 0 59.896 0Z" transform="translate(239.96 79) scale(-1 1)" fill="#34495E"/>
<path d="M1.19557 2.57706C1.85586 2.57706 2.39114 2.00016 2.39114 1.28853C2.39114 0.576894 1.85586 0 1.19557 0C0.535272 0 2.39252e-06 0.576894 2.39252e-06 1.28853C2.39252e-06 2.00016 0.535272 2.57706 1.19557 2.57706Z" transform="translate(189.942 80.1909) scale(-1 1)" fill="#FF614F"/>
<path d="M1.19557 2.57706C1.85587 2.57706 2.39114 2.00016 2.39114 1.28853C2.39114 0.576894 1.85587 0 1.19557 0C0.535279 0 -2.39252e-06 0.576894 -2.39252e-06 1.28853C-2.39252e-06 2.00016 0.535279 2.57706 1.19557 2.57706Z" transform="translate(186.003 80.1909) scale(-1 1)" fill="#84E570"/>
<path d="M1.19557 2.57706C1.85587 2.57706 2.39114 2.00016 2.39114 1.28853C2.39114 0.576894 1.85587 0 1.19557 0C0.535279 0 -2.39252e-06 0.576894 -2.39252e-06 1.28853C-2.39252e-06 2.00016 0.535279 2.57706 1.19557 2.57706Z" transform="translate(181.887 80.1909) scale(-1 1)" fill="#7D57FF"/>
<path d="M40.1006 2.01088C40.1006 3.1237 39.2774 4.02177 38.2582 4.02177H1.84235C0.823176 4.02177 -1.19626e-06 3.1237 -1.19626e-06 2.01088C-1.19626e-06 0.898065 0.823176 -3.72375e-08 1.84235 -3.72375e-08H38.2582C39.2578 -3.72375e-08 40.1006 0.898065 40.1006 2.01088Z" transform="translate(236.844 81.0889) scale(-1 1)" fill="#E2E1E0"/>
<path d="M13.2493 0H2.39252e-06V13.1976H13.2493V0Z" transform="translate(235.217 99.6165) scale(-1 1)" fill="#F95A78"/>
<path d="M13.2493 0H-4.78503e-06V13.1976H13.2493V0Z" transform="translate(215.441 99.6165) scale(-1 1)" fill="#F9F94B"/>
<path d="M13.2493 0H4.78503e-06V13.1976H13.2493V0Z" transform="translate(196.567 99.6165) scale(-1 1)" fill="#F49625"/>
<path d="M15.1308 0H-2.39252e-06V0.741879H15.1308V0Z" transform="translate(234.414 117.48) scale(-1 1)" fill="#AEC647"/>
<path d="M15.1308 0H-2.39252e-06V0.74188H15.1308V0Z" transform="translate(234.414 119.745) scale(-1 1)" fill="#F3AE1B"/>
<path d="M15.1308 0H-2.39252e-06V0.741881H15.1308V0Z" transform="translate(234.414 121.814) scale(-1 1)" fill="#DF3F11"/>
<path d="M15.1308 0H-2.39252e-06V0.741882H15.1308V0Z" transform="translate(234.414 141.162) scale(-1 1)" fill="#AEC647"/>
<path d="M15.1308 -2.3832e-06H-2.39252e-06V0.741881H15.1308V-2.3832e-06Z" transform="translate(234.414 138.702) scale(-1 1)" fill="#AEC647"/>
<path d="M15.1308 0H-2.39252e-06V0.741877H15.1308V0Z" transform="translate(234.414 143.719) scale(-1 1)" fill="#AEC647"/>
<path d="M15.1308 0H4.78503e-06V0.741879H15.1308V0Z" transform="translate(216.363 126.558) scale(-1 1)" fill="#F3AE1B"/>
<path d="M15.1308 0H0V0.741879H15.1308V0Z" transform="translate(232.336 126.558) scale(-1 1)" fill="#AEC647"/>
<path d="M15.1308 0H0V0.741881H15.1308V0Z" transform="translate(232.336 128.647) scale(-1 1)" fill="#F3AE1B"/>
<path d="M7.11462 0H4.78503e-06V0.741881H7.11462V0Z" transform="translate(216.363 128.647) scale(-1 1)" fill="#AEC647"/>
<path d="M15.1308 0H0V0.741882H15.1308V0Z" transform="translate(232.336 132.669) scale(-1 1)" fill="#AEC647"/>
<path d="M7.11462 0H4.78503e-06V0.741882H7.11462V0Z" transform="translate(216.363 132.669) scale(-1 1)" fill="#F3AE1B"/>
<path d="M7.11461 0H0V0.741877H7.11461V0Z" transform="translate(198.311 130.639) scale(-1 1)" fill="#F3AE1B"/>
<path d="M32.692 0H0V0.741881H32.692V0Z" transform="translate(232.336 124.157) scale(-1 1)" fill="#BCDEDE"/>
<path d="M32.692 0H0V0.741877H32.692V0Z" transform="translate(232.336 130.639) scale(-1 1)" fill="#BCDEDE"/>
<path d="M7.11461 0H0V0.741879H7.11461V0Z" transform="translate(198.311 135.051) scale(-1 1)" fill="#AEC647"/>
<path d="M32.692 0H0V0.741879H32.692V0Z" transform="translate(232.336 135.051) scale(-1 1)" fill="#AEC647"/>
<path d="M7.11462 2.3832e-06H4.78503e-06V0.74188H7.11462V2.3832e-06Z" transform="translate(200.389 145.808) scale(-1 1)" fill="#C84119"/>
<path d="M32.6919 2.3832e-06H-2.39252e-06V0.74188H32.6919V2.3832e-06Z" transform="translate(234.414 145.808) scale(-1 1)" fill="#6BB5CE"/>
<path opacity="0.1" d="M28.7524 0H4.78503e-06V79.3226H28.7524C30.0656 79.3226 31.1436 77.7607 31.1436 75.8474V15.3062V14.2714V3.14323C31.1436 1.40567 30.0852 0 28.7524 0Z" transform="translate(208.817 79) scale(-1 1)" fill="black"/>
<path d="M102.388 66.4392C102.388 73.7799 101.408 73.3699 94.0383 73.3699H8.07499C0.705582 73.3699 0 72.6866 0 65.3264V7.94785C0 0.60715 1.52876 0.197173 8.89817 0.197173L91.5296 0.119075C98.899 0.119075 102.309 -1.34517 102.309 5.99554L102.388 66.4392Z" transform="translate(331 220.424) scale(-1 1)" fill="#34495E"/>
<path d="M89.6873 -2.3832e-06H0V59.3504H89.6873V-2.3832e-06Z" transform="translate(324.65 227.435) scale(-1 1)" fill="#EDEDED"/>
<path d="M14.0724 4.76639e-06H0V14.0176H14.0724V4.76639e-06Z" transform="translate(319.24 239.754) scale(-1 1)" fill="#F95A78"/>
<path d="M14.0724 4.76639e-06H0V14.0176H14.0724V4.76639e-06Z" transform="translate(285.372 239.754) scale(-1 1)" fill="#F9F94B"/>
<path d="M14.0724 4.76639e-06H0V14.0176H14.0724V4.76639e-06Z" transform="translate(255.326 239.754) scale(-1 1)" fill="#F49625"/>
<path d="M22.559 -2.3832e-06H0V1.0152H22.559V-2.3832e-06Z" transform="translate(319.24 256.719) scale(-1 1)" fill="#AEC647"/>
<path d="M22.559 0H0V1.01521H22.559V0Z" transform="translate(319.24 259.784) scale(-1 1)" fill="#F3AE1B"/>
<path d="M22.559 0H0V1.01521H22.559V0Z" transform="translate(319.24 262.615) scale(-1 1)" fill="#DF3F11"/>
<path d="M18.5215 -4.76639e-06H0V1.0152H18.5215V-4.76639e-06Z" transform="translate(297.034 269.077) scale(-1 1)" fill="#F3AE1B"/>
<path d="M17.0908 -4.76639e-06H0V1.0152H17.0908V-4.76639e-06Z" transform="translate(316.418 269.077) scale(-1 1)" fill="#AEC647"/>
<path d="M17.0908 2.3832e-06H0V1.01521H17.0908V2.3832e-06Z" transform="translate(316.418 271.928) scale(-1 1)" fill="#F3AE1B"/>
<path d="M8.70217 2.3832e-06H0V1.01521H8.70217V2.3832e-06Z" transform="translate(297.034 271.928) scale(-1 1)" fill="#AEC647"/>
<path d="M17.0908 -2.3832e-06H0V1.0152H17.0908V-2.3832e-06Z" transform="translate(316.418 277.414) scale(-1 1)" fill="#AEC647"/>
<path d="M8.70217 -2.3832e-06H0V1.0152H8.70217V-2.3832e-06Z" transform="translate(297.034 277.414) scale(-1 1)" fill="#F3AE1B"/>
<path d="M6.21304 -4.76639e-06H-2.39252e-06V1.0152H6.21304V-4.76639e-06Z" transform="translate(278.317 274.641) scale(-1 1)" fill="#F3AE1B"/>
<path d="M36.9254 -2.3832e-06H0V1.0152H36.9254V-2.3832e-06Z" transform="translate(316.418 265.798) scale(-1 1)" fill="#BCDEDE"/>
<path d="M36.9254 -4.76639e-06H0V1.0152H36.9254V-4.76639e-06Z" transform="translate(316.418 274.641) scale(-1 1)" fill="#BCDEDE"/>
<path d="M6.21304 4.76639e-06H-2.39252e-06V1.0152H6.21304V4.76639e-06Z" transform="translate(278.317 280.655) scale(-1 1)" fill="#AEC647"/>
<path d="M36.9254 4.76639e-06H0V1.0152H36.9254V4.76639e-06Z" transform="translate(316.418 280.655) scale(-1 1)" fill="#AEC647"/>
<path d="M14.974 4.76639e-06H0V1.0152H14.974V4.76639e-06Z" transform="translate(253.484 269.429) scale(-1 1)" fill="#F3AE1B"/>
<path d="M13.8176 4.76639e-06H0V1.0152H13.8176V4.76639e-06Z" transform="translate(269.144 269.429) scale(-1 1)" fill="#AEC647"/>
<path d="M13.8176 0H0V1.01521H13.8176V0Z" transform="translate(269.144 272.279) scale(-1 1)" fill="#F3AE1B"/>
<path d="M7.03622 0H0V1.01521H7.03622V0Z" transform="translate(253.484 272.279) scale(-1 1)" fill="#AEC647"/>
<path d="M13.8176 -4.76639e-06H0V1.0152H13.8176V-4.76639e-06Z" transform="translate(269.144 277.765) scale(-1 1)" fill="#AEC647"/>
<path d="M7.03622 -4.76639e-06H0V1.0152H7.03622V-4.76639e-06Z" transform="translate(253.484 277.765) scale(-1 1)" fill="#F3AE1B"/>
<path d="M29.85 -4.76639e-06H0V1.0152H29.85V-4.76639e-06Z" transform="translate(269.144 266.149) scale(-1 1)" fill="#BCDEDE"/>
<path d="M29.85 4.76639e-06H0V1.0152H29.85V4.76639e-06Z" transform="translate(269.144 274.993) scale(-1 1)" fill="#BCDEDE"/>
<path d="M29.85 -9.53279e-06H0V1.01521H29.85V-9.53279e-06Z" transform="translate(269.144 281.006) scale(-1 1)" fill="#AEC647"/>
<path d="M89.6873 -2.3832e-06H0V9.56634H89.6873V-2.3832e-06Z" transform="translate(324.65 227.435) scale(-1 1)" fill="#34495E"/>
<path d="M42.5701 2.12803C42.5701 3.29941 41.6881 4.25604 40.6101 4.25604H1.95995C0.881977 4.25604 0 3.29941 0 2.12803C0 0.956637 0.881977 -2.3832e-06 1.95995 -2.3832e-06H40.6101C41.6881 -2.3832e-06 42.5701 0.956637 42.5701 2.12803Z" transform="translate(320.906 229.387) scale(-1 1)" fill="#E2E1E0"/>
<path d="M2.54793 1.38615C2.54793 2.14755 1.97955 2.77229 1.27397 2.77229C0.568385 2.77229 0 2.14755 0 1.38615C0 0.624746 0.568385 -2.3832e-06 1.27397 -2.3832e-06C1.97955 -2.3832e-06 2.54793 0.624746 2.54793 1.38615Z" transform="translate(249.564 229.387) scale(-1 1)" fill="#FF614F"/>
<path d="M2.54793 1.38615C2.54793 2.14755 1.97955 2.77229 1.27397 2.77229C0.568384 2.77229 -1.19626e-06 2.14755 -1.19626e-06 1.38615C-1.19626e-06 0.624746 0.568384 -2.3832e-06 1.27397 -2.3832e-06C1.97955 -2.3832e-06 2.54793 0.624746 2.54793 1.38615Z" transform="translate(245.37 229.387) scale(-1 1)" fill="#84E570"/>
<path d="M2.54794 1.38615C2.54794 2.14755 1.97955 2.77229 1.27397 2.77229C0.568388 2.77229 2.39252e-06 2.14755 2.39252e-06 1.38615C2.39252e-06 0.624746 0.568388 -2.3832e-06 1.27397 -2.3832e-06C1.97955 -2.3832e-06 2.54794 0.624746 2.54794 1.38615Z" transform="translate(240.999 229.387) scale(-1 1)" fill="#7D57FF"/>
</svg>
