<svg width="1173" height="355" viewBox="0 0 1173 355" fill="none" xmlns="http://www.w3.org/2000/svg">
<path d="M186 0H990H1069C1093.33 1.65722 1169 19.3388 1169 88.9587C1169 156.645 1093.33 175.652 1069 175.983H99C62 175.983 0 195.322 0 263.008C0 330.694 63 351 99 351H982" transform="translate(2 2)" stroke="white" stroke-width="2" stroke-miterlimit="1.78922" stroke-dasharray="15 15"/>
</svg>
