<svg width="28" height="27" viewBox="0 0 28 27" fill="none" xmlns="http://www.w3.org/2000/svg">
<rect width="32" height="4.84615" transform="translate(0.9729 23) rotate(-45)" fill="#00A3E2"/>
<rect width="32" height="4.84615" transform="translate(4.39966) rotate(45)" fill="#00A3E2"/>
</svg>
